%!PS-Adobe-3.0 EPSF-3.0
%%Creator: (MATLAB, The Mathworks, Inc. Version 9.12.0.1927505 \(R2022a\) Update 1. Operating System: Windows 7)
%%Title: dcs_paper/sevy/images/accel_avg_steps_increases_with_e.eps
%%CreationDate: 2022-07-15T12:53:02
%%Pages: (atend)
%%BoundingBox:    25     3   403   295
%%LanguageLevel: 3
%%EndComments
%%BeginProlog
%%BeginResource: procset (Apache XML Graphics Std ProcSet) 1.2 0
%%Version: 1.2 0
%%Copyright: (Copyright 2001-2003,2010 The Apache Software Foundation. License terms: http://www.apache.org/licenses/LICENSE-2.0)
/bd{bind def}bind def
/ld{load def}bd
/GR/grestore ld
/GS/gsave ld
/RM/rmoveto ld
/C/curveto ld
/t/show ld
/L/lineto ld
/ML/setmiterlimit ld
/CT/concat ld
/f/fill ld
/N/newpath ld
/S/stroke ld
/CC/setcmykcolor ld
/A/ashow ld
/cp/closepath ld
/RC/setrgbcolor ld
/LJ/setlinejoin ld
/GC/setgray ld
/LW/setlinewidth ld
/M/moveto ld
/re {4 2 roll M
1 index 0 rlineto
0 exch rlineto
neg 0 rlineto
cp } bd
/_ctm matrix def
/_tm matrix def
/BT { _ctm currentmatrix pop matrix _tm copy pop 0 0 moveto } bd
/ET { _ctm setmatrix } bd
/iTm { _ctm setmatrix _tm concat } bd
/Tm { _tm astore pop iTm 0 0 moveto } bd
/ux 0.0 def
/uy 0.0 def
/F {
  /Tp exch def
  /Tf exch def
  Tf findfont Tp scalefont setfont
  /cf Tf def  /cs Tp def
} bd
/ULS {currentpoint /uy exch def /ux exch def} bd
/ULE {
  /Tcx currentpoint pop def
  gsave
  newpath
  cf findfont cs scalefont dup
  /FontMatrix get 0 get /Ts exch def /FontInfo get dup
  /UnderlinePosition get Ts mul /To exch def
  /UnderlineThickness get Ts mul /Tt exch def
  ux uy To add moveto  Tcx uy To add lineto
  Tt setlinewidth stroke
  grestore
} bd
/OLE {
  /Tcx currentpoint pop def
  gsave
  newpath
  cf findfont cs scalefont dup
  /FontMatrix get 0 get /Ts exch def /FontInfo get dup
  /UnderlinePosition get Ts mul /To exch def
  /UnderlineThickness get Ts mul /Tt exch def
  ux uy To add cs add moveto Tcx uy To add cs add lineto
  Tt setlinewidth stroke
  grestore
} bd
/SOE {
  /Tcx currentpoint pop def
  gsave
  newpath
  cf findfont cs scalefont dup
  /FontMatrix get 0 get /Ts exch def /FontInfo get dup
  /UnderlinePosition get Ts mul /To exch def
  /UnderlineThickness get Ts mul /Tt exch def
  ux uy To add cs 10 mul 26 idiv add moveto Tcx uy To add cs 10 mul 26 idiv add lineto
  Tt setlinewidth stroke
  grestore
} bd
/QT {
/Y22 exch store
/X22 exch store
/Y21 exch store
/X21 exch store
currentpoint
/Y21 load 2 mul add 3 div exch
/X21 load 2 mul add 3 div exch
/X21 load 2 mul /X22 load add 3 div
/Y21 load 2 mul /Y22 load add 3 div
/X22 load /Y22 load curveto
} bd
/SSPD {
dup length /d exch dict def
{
/v exch def
/k exch def
currentpagedevice k known {
/cpdv currentpagedevice k get def
v cpdv ne {
/upd false def
/nullv v type /nulltype eq def
/nullcpdv cpdv type /nulltype eq def
nullv nullcpdv or
{
/upd true def
} {
/sametype v type cpdv type eq def
sametype {
v type /arraytype eq {
/vlen v length def
/cpdvlen cpdv length def
vlen cpdvlen eq {
0 1 vlen 1 sub {
/i exch def
/obj v i get def
/cpdobj cpdv i get def
obj cpdobj ne {
/upd true def
exit
} if
} for
} {
/upd true def
} ifelse
} {
v type /dicttype eq {
v {
/dv exch def
/dk exch def
/cpddv cpdv dk get def
dv cpddv ne {
/upd true def
exit
} if
} forall
} {
/upd true def
} ifelse
} ifelse
} if
} ifelse
upd true eq {
d k v put
} if
} if
} if
} forall
d length 0 gt {
d setpagedevice
} if
} bd
/RE { % /NewFontName [NewEncodingArray] /FontName RE -
  findfont dup length dict begin
  {
    1 index /FID ne
    {def} {pop pop} ifelse
  } forall
  /Encoding exch def
  /FontName 1 index def
  currentdict definefont pop
  end
} bind def
%%EndResource
%%BeginResource: procset (Apache XML Graphics EPS ProcSet) 1.0 0
%%Version: 1.0 0
%%Copyright: (Copyright 2002-2003 The Apache Software Foundation. License terms: http://www.apache.org/licenses/LICENSE-2.0)
/BeginEPSF { %def
/b4_Inc_state save def         % Save state for cleanup
/dict_count countdictstack def % Count objects on dict stack
/op_count count 1 sub def      % Count objects on operand stack
userdict begin                 % Push userdict on dict stack
/showpage { } def              % Redefine showpage, { } = null proc
0 setgray 0 setlinecap         % Prepare graphics state
1 setlinewidth 0 setlinejoin
10 setmiterlimit [ ] 0 setdash newpath
/languagelevel where           % If level not equal to 1 then
{pop languagelevel             % set strokeadjust and
1 ne                           % overprint to their defaults.
{false setstrokeadjust false setoverprint
} if
} if
} bd
/EndEPSF { %def
count op_count sub {pop} repeat            % Clean up stacks
countdictstack dict_count sub {end} repeat
b4_Inc_state restore
} bd
%%EndResource
%FOPBeginFontDict
%%IncludeResource: font Courier-Oblique
%%IncludeResource: font Courier-BoldOblique
%%IncludeResource: font Courier-Bold
%%IncludeResource: font ZapfDingbats
%%IncludeResource: font Symbol
%%IncludeResource: font Helvetica
%%IncludeResource: font Helvetica-Oblique
%%IncludeResource: font Helvetica-Bold
%%IncludeResource: font Helvetica-BoldOblique
%%IncludeResource: font Times-Roman
%%IncludeResource: font Times-Italic
%%IncludeResource: font Times-Bold
%%IncludeResource: font Times-BoldItalic
%%IncludeResource: font Courier
%FOPEndFontDict
%%BeginResource: encoding WinAnsiEncoding
/WinAnsiEncoding [
/.notdef /.notdef /.notdef /.notdef /.notdef
/.notdef /.notdef /.notdef /.notdef /.notdef
/.notdef /.notdef /.notdef /.notdef /.notdef
/.notdef /.notdef /.notdef /.notdef /.notdef
/.notdef /.notdef /.notdef /.notdef /.notdef
/.notdef /.notdef /.notdef /.notdef /.notdef
/.notdef /.notdef /space /exclam /quotedbl
/numbersign /dollar /percent /ampersand /quotesingle
/parenleft /parenright /asterisk /plus /comma
/hyphen /period /slash /zero /one
/two /three /four /five /six
/seven /eight /nine /colon /semicolon
/less /equal /greater /question /at
/A /B /C /D /E
/F /G /H /I /J
/K /L /M /N /O
/P /Q /R /S /T
/U /V /W /X /Y
/Z /bracketleft /backslash /bracketright /asciicircum
/underscore /quoteleft /a /b /c
/d /e /f /g /h
/i /j /k /l /m
/n /o /p /q /r
/s /t /u /v /w
/x /y /z /braceleft /bar
/braceright /asciitilde /bullet /Euro /bullet
/quotesinglbase /florin /quotedblbase /ellipsis /dagger
/daggerdbl /circumflex /perthousand /Scaron /guilsinglleft
/OE /bullet /Zcaron /bullet /bullet
/quoteleft /quoteright /quotedblleft /quotedblright /bullet
/endash /emdash /asciitilde /trademark /scaron
/guilsinglright /oe /bullet /zcaron /Ydieresis
/space /exclamdown /cent /sterling /currency
/yen /brokenbar /section /dieresis /copyright
/ordfeminine /guillemotleft /logicalnot /sfthyphen /registered
/macron /degree /plusminus /twosuperior /threesuperior
/acute /mu /paragraph /middot /cedilla
/onesuperior /ordmasculine /guillemotright /onequarter /onehalf
/threequarters /questiondown /Agrave /Aacute /Acircumflex
/Atilde /Adieresis /Aring /AE /Ccedilla
/Egrave /Eacute /Ecircumflex /Edieresis /Igrave
/Iacute /Icircumflex /Idieresis /Eth /Ntilde
/Ograve /Oacute /Ocircumflex /Otilde /Odieresis
/multiply /Oslash /Ugrave /Uacute /Ucircumflex
/Udieresis /Yacute /Thorn /germandbls /agrave
/aacute /acircumflex /atilde /adieresis /aring
/ae /ccedilla /egrave /eacute /ecircumflex
/edieresis /igrave /iacute /icircumflex /idieresis
/eth /ntilde /ograve /oacute /ocircumflex
/otilde /odieresis /divide /oslash /ugrave
/uacute /ucircumflex /udieresis /yacute /thorn
/ydieresis
] def
%%EndResource
%FOPBeginFontReencode
/Courier-Oblique findfont
dup length dict begin
  {1 index /FID ne {def} {pop pop} ifelse} forall
  /Encoding WinAnsiEncoding def
  currentdict
end
/Courier-Oblique exch definefont pop
/Courier-BoldOblique findfont
dup length dict begin
  {1 index /FID ne {def} {pop pop} ifelse} forall
  /Encoding WinAnsiEncoding def
  currentdict
end
/Courier-BoldOblique exch definefont pop
/Courier-Bold findfont
dup length dict begin
  {1 index /FID ne {def} {pop pop} ifelse} forall
  /Encoding WinAnsiEncoding def
  currentdict
end
/Courier-Bold exch definefont pop
/Helvetica findfont
dup length dict begin
  {1 index /FID ne {def} {pop pop} ifelse} forall
  /Encoding WinAnsiEncoding def
  currentdict
end
/Helvetica exch definefont pop
/Helvetica-Oblique findfont
dup length dict begin
  {1 index /FID ne {def} {pop pop} ifelse} forall
  /Encoding WinAnsiEncoding def
  currentdict
end
/Helvetica-Oblique exch definefont pop
/Helvetica-Bold findfont
dup length dict begin
  {1 index /FID ne {def} {pop pop} ifelse} forall
  /Encoding WinAnsiEncoding def
  currentdict
end
/Helvetica-Bold exch definefont pop
/Helvetica-BoldOblique findfont
dup length dict begin
  {1 index /FID ne {def} {pop pop} ifelse} forall
  /Encoding WinAnsiEncoding def
  currentdict
end
/Helvetica-BoldOblique exch definefont pop
/Times-Roman findfont
dup length dict begin
  {1 index /FID ne {def} {pop pop} ifelse} forall
  /Encoding WinAnsiEncoding def
  currentdict
end
/Times-Roman exch definefont pop
/Times-Italic findfont
dup length dict begin
  {1 index /FID ne {def} {pop pop} ifelse} forall
  /Encoding WinAnsiEncoding def
  currentdict
end
/Times-Italic exch definefont pop
/Times-Bold findfont
dup length dict begin
  {1 index /FID ne {def} {pop pop} ifelse} forall
  /Encoding WinAnsiEncoding def
  currentdict
end
/Times-Bold exch definefont pop
/Times-BoldItalic findfont
dup length dict begin
  {1 index /FID ne {def} {pop pop} ifelse} forall
  /Encoding WinAnsiEncoding def
  currentdict
end
/Times-BoldItalic exch definefont pop
/Courier findfont
dup length dict begin
  {1 index /FID ne {def} {pop pop} ifelse} forall
  /Encoding WinAnsiEncoding def
  currentdict
end
/Courier exch definefont pop
%FOPEndFontReencode
%%EndProlog
%%Page: 1 1
%%PageBoundingBox: 0 0 420 315
%%BeginPageSetup
N
   25     3 M
  428     3 L
  428   298 L
   25   298 L
cp
clip
[1 0 0 -1 0 315] CT
%%EndPageSetup
GS
[0.62069 0 0 0.62069 0 -0.31033] CT
1 GC
N
0 0 677 508 re
f
GR
GS
[0.62069 0 0 0.62069 0 -0.31033] CT
1 GC
N
88 452 M
613 452 L
613 38 L
88 38 L
cp
f
GR
GS
[0.62069 0 0 0.62069 0 -0.31033] CT
0.149 GC
2 setlinecap
1 LJ
0.806 LW
N
88 452 M
613 452 L
S
GR
GS
[0.62069 0 0 0.62069 0 -0.31033] CT
0.149 GC
2 setlinecap
1 LJ
0.806 LW
N
88 452 M
88 446.75 L
S
GR
GS
[0.62069 0 0 0.62069 0 -0.31033] CT
0.149 GC
2 setlinecap
1 LJ
0.806 LW
N
193 452 M
193 446.75 L
S
GR
GS
[0.62069 0 0 0.62069 0 -0.31033] CT
0.149 GC
2 setlinecap
1 LJ
0.806 LW
N
298 452 M
298 446.75 L
S
GR
GS
[0.62069 0 0 0.62069 0 -0.31033] CT
0.149 GC
2 setlinecap
1 LJ
0.806 LW
N
403 452 M
403 446.75 L
S
GR
GS
[0.62069 0 0 0.62069 0 -0.31033] CT
0.149 GC
2 setlinecap
1 LJ
0.806 LW
N
508 452 M
508 446.75 L
S
GR
GS
[0.62069 0 0 0.62069 0 -0.31033] CT
0.149 GC
2 setlinecap
1 LJ
0.806 LW
N
613 452 M
613 446.75 L
S
GR
GS
[0.62069 0 0 0.62069 54.62069 284.24139] CT
0.149 GC
/Helvetica 16.111 F
GS
[1 0 0 1 0 0] CT
-4.5 17 moveto 
1 -1 scale
(1) t 
GR
GR
GS
[0.62069 0 0 0.62069 119.79311 284.24139] CT
0.149 GC
/Helvetica 16.111 F
GS
[1 0 0 1 0 0] CT
-4.5 17 moveto 
1 -1 scale
(2) t 
GR
GR
GS
[0.62069 0 0 0.62069 184.96552 284.24139] CT
0.149 GC
/Helvetica 16.111 F
GS
[1 0 0 1 0 0] CT
-4.5 17 moveto 
1 -1 scale
(3) t 
GR
GR
GS
[0.62069 0 0 0.62069 250.13794 284.24139] CT
0.149 GC
/Helvetica 16.111 F
GS
[1 0 0 1 0 0] CT
-4.5 17 moveto 
1 -1 scale
(4) t 
GR
GR
GS
[0.62069 0 0 0.62069 315.31035 284.24139] CT
0.149 GC
/Helvetica 16.111 F
GS
[1 0 0 1 0 0] CT
-4.5 17 moveto 
1 -1 scale
(5) t 
GR
GR
GS
[0.62069 0 0 0.62069 380.48277 284.24139] CT
0.149 GC
/Helvetica 16.111 F
GS
[1 0 0 1 0 0] CT
-4.5 17 moveto 
1 -1 scale
(6) t 
GR
GR
GS
[0.62069 0 0 0.62069 217.55188 298.27585] CT
0.149 GC
/Helvetica 17.722 F
GS
[1 0 0 1 0 0] CT
-35.5 18 moveto 
1 -1 scale
(-log10\(e\)) t 
GR
GR
GS
[0.62069 0 0 0.62069 0 -0.31033] CT
0.149 GC
2 setlinecap
1 LJ
0.806 LW
N
88 452 M
88 38 L
S
GR
GS
[0.62069 0 0 0.62069 0 -0.31033] CT
0.149 GC
2 setlinecap
1 LJ
0.806 LW
N
88 452 M
93.25 452 L
S
GR
GS
[0.62069 0 0 0.62069 0 -0.31033] CT
0.149 GC
2 setlinecap
1 LJ
0.806 LW
N
88 410.6 M
93.25 410.6 L
S
GR
GS
[0.62069 0 0 0.62069 0 -0.31033] CT
0.149 GC
2 setlinecap
1 LJ
0.806 LW
N
88 369.2 M
93.25 369.2 L
S
GR
GS
[0.62069 0 0 0.62069 0 -0.31033] CT
0.149 GC
2 setlinecap
1 LJ
0.806 LW
N
88 327.8 M
93.25 327.8 L
S
GR
GS
[0.62069 0 0 0.62069 0 -0.31033] CT
0.149 GC
2 setlinecap
1 LJ
0.806 LW
N
88 286.4 M
93.25 286.4 L
S
GR
GS
[0.62069 0 0 0.62069 0 -0.31033] CT
0.149 GC
2 setlinecap
1 LJ
0.806 LW
N
88 245 M
93.25 245 L
S
GR
GS
[0.62069 0 0 0.62069 0 -0.31033] CT
0.149 GC
2 setlinecap
1 LJ
0.806 LW
N
88 203.6 M
93.25 203.6 L
S
GR
GS
[0.62069 0 0 0.62069 0 -0.31033] CT
0.149 GC
2 setlinecap
1 LJ
0.806 LW
N
88 162.2 M
93.25 162.2 L
S
GR
GS
[0.62069 0 0 0.62069 0 -0.31033] CT
0.149 GC
2 setlinecap
1 LJ
0.806 LW
N
88 120.8 M
93.25 120.8 L
S
GR
GS
[0.62069 0 0 0.62069 0 -0.31033] CT
0.149 GC
2 setlinecap
1 LJ
0.806 LW
N
88 79.4 M
93.25 79.4 L
S
GR
GS
[0.62069 0 0 0.62069 0 -0.31033] CT
0.149 GC
2 setlinecap
1 LJ
0.806 LW
N
88 38 M
93.25 38 L
S
GR
GS
[0.62069 0 0 0.62069 50.62069 280.24138] CT
0.149 GC
/Helvetica 16.111 F
GS
[1 0 0 1 0 0] CT
-9 6.5 moveto 
1 -1 scale
(0) t 
GR
GR
GS
[0.62069 0 0 0.62069 50.62069 254.54483] CT
0.149 GC
/Helvetica 16.111 F
GS
[1 0 0 1 0 0] CT
-9 6.5 moveto 
1 -1 scale
(2) t 
GR
GR
GS
[0.62069 0 0 0.62069 50.62069 228.84829] CT
0.149 GC
/Helvetica 16.111 F
GS
[1 0 0 1 0 0] CT
-9 6.5 moveto 
1 -1 scale
(4) t 
GR
GR
GS
[0.62069 0 0 0.62069 50.62069 203.15172] CT
0.149 GC
/Helvetica 16.111 F
GS
[1 0 0 1 0 0] CT
-9 6.5 moveto 
1 -1 scale
(6) t 
GR
GR
GS
[0.62069 0 0 0.62069 50.62069 177.45517] CT
0.149 GC
/Helvetica 16.111 F
GS
[1 0 0 1 0 0] CT
-9 6.5 moveto 
1 -1 scale
(8) t 
GR
GR
GS
[0.62069 0 0 0.62069 50.62069 151.75863] CT
0.149 GC
/Helvetica 16.111 F
GS
[1 0 0 1 0 0] CT
-18 6.5 moveto 
1 -1 scale
(10) t 
GR
GR
GS
[0.62069 0 0 0.62069 50.62069 126.06208] CT
0.149 GC
/Helvetica 16.111 F
GS
[1 0 0 1 0 0] CT
-18 6.5 moveto 
1 -1 scale
(12) t 
GR
GR
GS
[0.62069 0 0 0.62069 50.62069 100.36552] CT
0.149 GC
/Helvetica 16.111 F
GS
[1 0 0 1 0 0] CT
-18 6.5 moveto 
1 -1 scale
(14) t 
GR
GR
GS
[0.62069 0 0 0.62069 50.62069 74.66898] CT
0.149 GC
/Helvetica 16.111 F
GS
[1 0 0 1 0 0] CT
-18 6.5 moveto 
1 -1 scale
(16) t 
GR
GR
GS
[0.62069 0 0 0.62069 50.62069 48.97242] CT
0.149 GC
/Helvetica 16.111 F
GS
[1 0 0 1 0 0] CT
-18 6.5 moveto 
1 -1 scale
(18) t 
GR
GR
GS
[0.62069 0 0 0.62069 50.62069 23.27587] CT
0.149 GC
/Helvetica 16.111 F
GS
[1 0 0 1 0 0] CT
-18 6.5 moveto 
1 -1 scale
(20) t 
GR
GR
GS
[0 -0.62069 0.62069 0 36.44828 151.7585] CT
0.149 GC
/Helvetica 17.722 F
GS
[1 0 0 1 0 0] CT
-55.5 -4 moveto 
1 -1 scale
(avg # of steps) t 
GR
GR
GS
[0.62069 0 0 0.62069 0 -0.31033] CT
0 0.447 0.741 RC
1 LJ
0.806 LW
N
88 381.338 M
193 324.745 L
298 271.198 L
403 216.509 L
508 162.018 L
613 109.316 L
S
GR
GS
[0.62069 0 0 0.62069 381.13452 67.54075] CT
/Helvetica 16.111 F
GS
[1 0 0 1 0 0] CT
0 6.5 moveto 
1 -1 scale
(4) t 
GR
GR
GS
[0.62069 0 0 0.62069 0 -0.31033] CT
0.851 0.325 0.098 RC
1 LJ
0.806 LW
N
88 376.263 M
193 307.324 L
298 237.838 L
403 175.349 L
508 108.206 L
613 38.613 L
S
GR
GS
[0.62069 0 0 0.62069 381.13452 23.65618] CT
/Helvetica 16.111 F
GS
[1 0 0 1 0 0] CT
0 6.5 moveto 
1 -1 scale
(8) t 
GR
GR
GS
[0.62069 0 0 0.62069 0 -0.31033] CT
0.929 0.694 0.125 RC
1 LJ
0.806 LW
N
88 382.961 M
193 317.318 L
298 251.525 L
403 190.758 L
508 133.005 L
613 74.987 L
S
GR
GS
[0.62069 0 0 0.62069 381.13452 46.23318] CT
/Helvetica 16.111 F
GS
[1 0 0 1 0 0] CT
0 6.5 moveto 
1 -1 scale
(16) t 
GR
GR
GS
[0.62069 0 0 0.62069 0 -0.31033] CT
0.494 0.184 0.557 RC
1 LJ
0.806 LW
N
88 395.365 M
193 338.63 L
298 288.602 L
403 233.242 L
508 187.032 L
613 129.163 L
S
GR
GS
[0.62069 0 0 0.62069 381.13452 79.85968] CT
/Helvetica 16.111 F
GS
[1 0 0 1 0 0] CT
0 6.5 moveto 
1 -1 scale
(32) t 
GR
GR
GS
[0.62069 0 0 0.62069 0 -0.31033] CT
0.467 0.675 0.188 RC
1 LJ
0.806 LW
N
88 405.856 M
193 363.379 L
298 321.052 L
403 276.464 L
508 239.163 L
613 195.9 L
S
GR
GS
[0.62069 0 0 0.62069 381.13452 121.28253] CT
/Helvetica 16.111 F
GS
[1 0 0 1 0 0] CT
0 6.5 moveto 
1 -1 scale
(64) t 
GR
GR
GS
[0.62069 0 0 0.62069 0 -0.31033] CT
0.302 0.745 0.933 RC
1 LJ
0.806 LW
N
88 413.755 M
193 378.863 L
298 346.861 L
403 309.104 L
508 282.243 L
613 242.889 L
S
GR
GS
[0.62069 0 0 0.62069 381.13452 150.4481] CT
/Helvetica 16.111 F
GS
[1 0 0 1 0 0] CT
0 6.5 moveto 
1 -1 scale
(128) t 
GR
GR
GS
[0.62069 0 0 0.62069 0 -0.31033] CT
0.635 0.078 0.184 RC
1 LJ
0.806 LW
N
88 420.528 M
193 389.345 L
298 364.696 L
403 336.535 L
508 309.029 L
613 279.221 L
S
GR
GS
[0.62069 0 0 0.62069 381.13452 172.9994] CT
/Helvetica 16.111 F
GS
[1 0 0 1 0 0] CT
0 6.5 moveto 
1 -1 scale
(256) t 
GR
GR
GS
[0.62069 0 0 0.62069 0 -0.31033] CT
0 0.447 0.741 RC
1 LJ
0.806 LW
N
88 425.405 M
193 398.71 L
298 376.197 L
403 350.504 L
508 329.936 L
613 306.14 L
S
GR
GS
[0.62069 0 0 0.62069 381.13452 189.7073] CT
/Helvetica 16.111 F
GS
[1 0 0 1 0 0] CT
0 6.5 moveto 
1 -1 scale
(512) t 
GR
GR
GS
[0.62069 0 0 0.62069 0 -0.31033] CT
0.851 0.325 0.098 RC
1 LJ
0.806 LW
N
88 428.94 M
193 402.858 L
298 385.429 L
403 365.143 L
508 350.57 L
613 325.399 L
S
GR
GS
[0.62069 0 0 0.62069 381.13452 201.66133] CT
/Helvetica 16.111 F
GS
[1 0 0 1 0 0] CT
0 6.5 moveto 
1 -1 scale
(1024) t 
GR
GR
GS
[0.62069 0 0 0.62069 0 -0.31033] CT
0.929 0.694 0.125 RC
1 LJ
0.806 LW
N
88 429.23 M
193 406.46 L
298 389.9 L
403 379.55 L
508 367.13 L
S
GR
GS
[0.62069 0 0 0.62069 315.96209 224.99379] CT
/Helvetica 16.111 F
GS
[1 0 0 1 0 0] CT
0 6.5 moveto 
1 -1 scale
(2048) t 
GR
GR
GS
[0.62069 0 0 0.62069 0 -0.31033] CT
0.494 0.184 0.557 RC
1 LJ
0.806 LW
N
88 427.16 M
193 420.95 L
298 406.46 L
403 394.04 L
508 377.48 L
S
GR
GS
[0.62069 0 0 0.62069 315.96209 233.9876] CT
/Helvetica 16.111 F
GS
[1 0 0 1 0 0] CT
0 6.5 moveto 
1 -1 scale
(4096) t 
GR
GR
%%Trailer
%%Pages: 1
%%EOF
