%!PS-Adobe-3.0 EPSF-3.0
%%Creator: (MATLAB, The Mathworks, Inc. Version 9.12.0.1927505 \(R2022a\) Update 1. Operating System: Windows 7)
%%Title: dcs_paper/sevy/nodal_flops_avg_comparisson.eps
%%CreationDate: 2022-07-14T01:20:35
%%Pages: (atend)
%%BoundingBox:    22     3   386   295
%%LanguageLevel: 3
%%EndComments
%%BeginProlog
%%BeginResource: procset (Apache XML Graphics Std ProcSet) 1.2 0
%%Version: 1.2 0
%%Copyright: (Copyright 2001-2003,2010 The Apache Software Foundation. License terms: http://www.apache.org/licenses/LICENSE-2.0)
/bd{bind def}bind def
/ld{load def}bd
/GR/grestore ld
/GS/gsave ld
/RM/rmoveto ld
/C/curveto ld
/t/show ld
/L/lineto ld
/ML/setmiterlimit ld
/CT/concat ld
/f/fill ld
/N/newpath ld
/S/stroke ld
/CC/setcmykcolor ld
/A/ashow ld
/cp/closepath ld
/RC/setrgbcolor ld
/LJ/setlinejoin ld
/GC/setgray ld
/LW/setlinewidth ld
/M/moveto ld
/re {4 2 roll M
1 index 0 rlineto
0 exch rlineto
neg 0 rlineto
cp } bd
/_ctm matrix def
/_tm matrix def
/BT { _ctm currentmatrix pop matrix _tm copy pop 0 0 moveto } bd
/ET { _ctm setmatrix } bd
/iTm { _ctm setmatrix _tm concat } bd
/Tm { _tm astore pop iTm 0 0 moveto } bd
/ux 0.0 def
/uy 0.0 def
/F {
  /Tp exch def
  /Tf exch def
  Tf findfont Tp scalefont setfont
  /cf Tf def  /cs Tp def
} bd
/ULS {currentpoint /uy exch def /ux exch def} bd
/ULE {
  /Tcx currentpoint pop def
  gsave
  newpath
  cf findfont cs scalefont dup
  /FontMatrix get 0 get /Ts exch def /FontInfo get dup
  /UnderlinePosition get Ts mul /To exch def
  /UnderlineThickness get Ts mul /Tt exch def
  ux uy To add moveto  Tcx uy To add lineto
  Tt setlinewidth stroke
  grestore
} bd
/OLE {
  /Tcx currentpoint pop def
  gsave
  newpath
  cf findfont cs scalefont dup
  /FontMatrix get 0 get /Ts exch def /FontInfo get dup
  /UnderlinePosition get Ts mul /To exch def
  /UnderlineThickness get Ts mul /Tt exch def
  ux uy To add cs add moveto Tcx uy To add cs add lineto
  Tt setlinewidth stroke
  grestore
} bd
/SOE {
  /Tcx currentpoint pop def
  gsave
  newpath
  cf findfont cs scalefont dup
  /FontMatrix get 0 get /Ts exch def /FontInfo get dup
  /UnderlinePosition get Ts mul /To exch def
  /UnderlineThickness get Ts mul /Tt exch def
  ux uy To add cs 10 mul 26 idiv add moveto Tcx uy To add cs 10 mul 26 idiv add lineto
  Tt setlinewidth stroke
  grestore
} bd
/QT {
/Y22 exch store
/X22 exch store
/Y21 exch store
/X21 exch store
currentpoint
/Y21 load 2 mul add 3 div exch
/X21 load 2 mul add 3 div exch
/X21 load 2 mul /X22 load add 3 div
/Y21 load 2 mul /Y22 load add 3 div
/X22 load /Y22 load curveto
} bd
/SSPD {
dup length /d exch dict def
{
/v exch def
/k exch def
currentpagedevice k known {
/cpdv currentpagedevice k get def
v cpdv ne {
/upd false def
/nullv v type /nulltype eq def
/nullcpdv cpdv type /nulltype eq def
nullv nullcpdv or
{
/upd true def
} {
/sametype v type cpdv type eq def
sametype {
v type /arraytype eq {
/vlen v length def
/cpdvlen cpdv length def
vlen cpdvlen eq {
0 1 vlen 1 sub {
/i exch def
/obj v i get def
/cpdobj cpdv i get def
obj cpdobj ne {
/upd true def
exit
} if
} for
} {
/upd true def
} ifelse
} {
v type /dicttype eq {
v {
/dv exch def
/dk exch def
/cpddv cpdv dk get def
dv cpddv ne {
/upd true def
exit
} if
} forall
} {
/upd true def
} ifelse
} ifelse
} if
} ifelse
upd true eq {
d k v put
} if
} if
} if
} forall
d length 0 gt {
d setpagedevice
} if
} bd
/RE { % /NewFontName [NewEncodingArray] /FontName RE -
  findfont dup length dict begin
  {
    1 index /FID ne
    {def} {pop pop} ifelse
  } forall
  /Encoding exch def
  /FontName 1 index def
  currentdict definefont pop
  end
} bind def
%%EndResource
%%BeginResource: procset (Apache XML Graphics EPS ProcSet) 1.0 0
%%Version: 1.0 0
%%Copyright: (Copyright 2002-2003 The Apache Software Foundation. License terms: http://www.apache.org/licenses/LICENSE-2.0)
/BeginEPSF { %def
/b4_Inc_state save def         % Save state for cleanup
/dict_count countdictstack def % Count objects on dict stack
/op_count count 1 sub def      % Count objects on operand stack
userdict begin                 % Push userdict on dict stack
/showpage { } def              % Redefine showpage, { } = null proc
0 setgray 0 setlinecap         % Prepare graphics state
1 setlinewidth 0 setlinejoin
10 setmiterlimit [ ] 0 setdash newpath
/languagelevel where           % If level not equal to 1 then
{pop languagelevel             % set strokeadjust and
1 ne                           % overprint to their defaults.
{false setstrokeadjust false setoverprint
} if
} if
} bd
/EndEPSF { %def
count op_count sub {pop} repeat            % Clean up stacks
countdictstack dict_count sub {end} repeat
b4_Inc_state restore
} bd
%%EndResource
%FOPBeginFontDict
%%IncludeResource: font Courier-Oblique
%%IncludeResource: font Courier-BoldOblique
%%IncludeResource: font Courier-Bold
%%IncludeResource: font ZapfDingbats
%%IncludeResource: font Symbol
%%IncludeResource: font Helvetica
%%IncludeResource: font Helvetica-Oblique
%%IncludeResource: font Helvetica-Bold
%%IncludeResource: font Helvetica-BoldOblique
%%IncludeResource: font Times-Roman
%%IncludeResource: font Times-Italic
%%IncludeResource: font Times-Bold
%%IncludeResource: font Times-BoldItalic
%%IncludeResource: font Courier
%FOPEndFontDict
%%BeginResource: encoding WinAnsiEncoding
/WinAnsiEncoding [
/.notdef /.notdef /.notdef /.notdef /.notdef
/.notdef /.notdef /.notdef /.notdef /.notdef
/.notdef /.notdef /.notdef /.notdef /.notdef
/.notdef /.notdef /.notdef /.notdef /.notdef
/.notdef /.notdef /.notdef /.notdef /.notdef
/.notdef /.notdef /.notdef /.notdef /.notdef
/.notdef /.notdef /space /exclam /quotedbl
/numbersign /dollar /percent /ampersand /quotesingle
/parenleft /parenright /asterisk /plus /comma
/hyphen /period /slash /zero /one
/two /three /four /five /six
/seven /eight /nine /colon /semicolon
/less /equal /greater /question /at
/A /B /C /D /E
/F /G /H /I /J
/K /L /M /N /O
/P /Q /R /S /T
/U /V /W /X /Y
/Z /bracketleft /backslash /bracketright /asciicircum
/underscore /quoteleft /a /b /c
/d /e /f /g /h
/i /j /k /l /m
/n /o /p /q /r
/s /t /u /v /w
/x /y /z /braceleft /bar
/braceright /asciitilde /bullet /Euro /bullet
/quotesinglbase /florin /quotedblbase /ellipsis /dagger
/daggerdbl /circumflex /perthousand /Scaron /guilsinglleft
/OE /bullet /Zcaron /bullet /bullet
/quoteleft /quoteright /quotedblleft /quotedblright /bullet
/endash /emdash /asciitilde /trademark /scaron
/guilsinglright /oe /bullet /zcaron /Ydieresis
/space /exclamdown /cent /sterling /currency
/yen /brokenbar /section /dieresis /copyright
/ordfeminine /guillemotleft /logicalnot /sfthyphen /registered
/macron /degree /plusminus /twosuperior /threesuperior
/acute /mu /paragraph /middot /cedilla
/onesuperior /ordmasculine /guillemotright /onequarter /onehalf
/threequarters /questiondown /Agrave /Aacute /Acircumflex
/Atilde /Adieresis /Aring /AE /Ccedilla
/Egrave /Eacute /Ecircumflex /Edieresis /Igrave
/Iacute /Icircumflex /Idieresis /Eth /Ntilde
/Ograve /Oacute /Ocircumflex /Otilde /Odieresis
/multiply /Oslash /Ugrave /Uacute /Ucircumflex
/Udieresis /Yacute /Thorn /germandbls /agrave
/aacute /acircumflex /atilde /adieresis /aring
/ae /ccedilla /egrave /eacute /ecircumflex
/edieresis /igrave /iacute /icircumflex /idieresis
/eth /ntilde /ograve /oacute /ocircumflex
/otilde /odieresis /divide /oslash /ugrave
/uacute /ucircumflex /udieresis /yacute /thorn
/ydieresis
] def
%%EndResource
%FOPBeginFontReencode
/Courier-Oblique findfont
dup length dict begin
  {1 index /FID ne {def} {pop pop} ifelse} forall
  /Encoding WinAnsiEncoding def
  currentdict
end
/Courier-Oblique exch definefont pop
/Courier-BoldOblique findfont
dup length dict begin
  {1 index /FID ne {def} {pop pop} ifelse} forall
  /Encoding WinAnsiEncoding def
  currentdict
end
/Courier-BoldOblique exch definefont pop
/Courier-Bold findfont
dup length dict begin
  {1 index /FID ne {def} {pop pop} ifelse} forall
  /Encoding WinAnsiEncoding def
  currentdict
end
/Courier-Bold exch definefont pop
/Helvetica findfont
dup length dict begin
  {1 index /FID ne {def} {pop pop} ifelse} forall
  /Encoding WinAnsiEncoding def
  currentdict
end
/Helvetica exch definefont pop
/Helvetica-Oblique findfont
dup length dict begin
  {1 index /FID ne {def} {pop pop} ifelse} forall
  /Encoding WinAnsiEncoding def
  currentdict
end
/Helvetica-Oblique exch definefont pop
/Helvetica-Bold findfont
dup length dict begin
  {1 index /FID ne {def} {pop pop} ifelse} forall
  /Encoding WinAnsiEncoding def
  currentdict
end
/Helvetica-Bold exch definefont pop
/Helvetica-BoldOblique findfont
dup length dict begin
  {1 index /FID ne {def} {pop pop} ifelse} forall
  /Encoding WinAnsiEncoding def
  currentdict
end
/Helvetica-BoldOblique exch definefont pop
/Times-Roman findfont
dup length dict begin
  {1 index /FID ne {def} {pop pop} ifelse} forall
  /Encoding WinAnsiEncoding def
  currentdict
end
/Times-Roman exch definefont pop
/Times-Italic findfont
dup length dict begin
  {1 index /FID ne {def} {pop pop} ifelse} forall
  /Encoding WinAnsiEncoding def
  currentdict
end
/Times-Italic exch definefont pop
/Times-Bold findfont
dup length dict begin
  {1 index /FID ne {def} {pop pop} ifelse} forall
  /Encoding WinAnsiEncoding def
  currentdict
end
/Times-Bold exch definefont pop
/Times-BoldItalic findfont
dup length dict begin
  {1 index /FID ne {def} {pop pop} ifelse} forall
  /Encoding WinAnsiEncoding def
  currentdict
end
/Times-BoldItalic exch definefont pop
/Courier findfont
dup length dict begin
  {1 index /FID ne {def} {pop pop} ifelse} forall
  /Encoding WinAnsiEncoding def
  currentdict
end
/Courier exch definefont pop
%FOPEndFontReencode
%%EndProlog
%%Page: 1 1
%%PageBoundingBox: 0 0 420 315
%%BeginPageSetup
N
   22     3 M
  408     3 L
  408   298 L
   22   298 L
cp
clip
[1 0 0 -1 0 315] CT
%%EndPageSetup
GS
[0.62069 0 0 0.62069 0 -0.31033] CT
1 GC
N
0 0 677 508 re
f
GR
GS
[0.62069 0 0 0.62069 0 -0.31033] CT
1 GC
N
88 452 M
613 452 L
613 38 L
88 38 L
cp
f
GR
GS
[0.62069 0 0 0.62069 0 -0.31033] CT
0.149 GC
2 setlinecap
1 LJ
0.806 LW
N
88 452 M
613 452 L
S
GR
GS
[0.62069 0 0 0.62069 0 -0.31033] CT
0.149 GC
2 setlinecap
1 LJ
0.806 LW
N
88 452 M
88 446.75 L
S
GR
GS
[0.62069 0 0 0.62069 0 -0.31033] CT
0.149 GC
2 setlinecap
1 LJ
0.806 LW
N
193 452 M
193 446.75 L
S
GR
GS
[0.62069 0 0 0.62069 0 -0.31033] CT
0.149 GC
2 setlinecap
1 LJ
0.806 LW
N
298 452 M
298 446.75 L
S
GR
GS
[0.62069 0 0 0.62069 0 -0.31033] CT
0.149 GC
2 setlinecap
1 LJ
0.806 LW
N
403 452 M
403 446.75 L
S
GR
GS
[0.62069 0 0 0.62069 0 -0.31033] CT
0.149 GC
2 setlinecap
1 LJ
0.806 LW
N
508 452 M
508 446.75 L
S
GR
GS
[0.62069 0 0 0.62069 0 -0.31033] CT
0.149 GC
2 setlinecap
1 LJ
0.806 LW
N
613 452 M
613 446.75 L
S
GR
GS
[0.62069 0 0 0.62069 54.62069 284.24137] CT
0.149 GC
/Helvetica 16.111 F
GS
[1 0 0 1 0 0] CT
-4.5 17 moveto 
1 -1 scale
(2) t 
GR
GR
GS
[0.62069 0 0 0.62069 119.79311 284.24137] CT
0.149 GC
/Helvetica 16.111 F
GS
[1 0 0 1 0 0] CT
-4.5 17 moveto 
1 -1 scale
(4) t 
GR
GR
GS
[0.62069 0 0 0.62069 184.96552 284.24137] CT
0.149 GC
/Helvetica 16.111 F
GS
[1 0 0 1 0 0] CT
-4.5 17 moveto 
1 -1 scale
(6) t 
GR
GR
GS
[0.62069 0 0 0.62069 250.13794 284.24137] CT
0.149 GC
/Helvetica 16.111 F
GS
[1 0 0 1 0 0] CT
-4.5 17 moveto 
1 -1 scale
(8) t 
GR
GR
GS
[0.62069 0 0 0.62069 315.31035 284.24137] CT
0.149 GC
/Helvetica 16.111 F
GS
[1 0 0 1 0 0] CT
-9 17 moveto 
1 -1 scale
(10) t 
GR
GR
GS
[0.62069 0 0 0.62069 380.48277 284.24137] CT
0.149 GC
/Helvetica 16.111 F
GS
[1 0 0 1 0 0] CT
-9 17 moveto 
1 -1 scale
(12) t 
GR
GR
GS
[0.62069 0 0 0.62069 217.55188 298.27585] CT
0.149 GC
/Helvetica 17.722 F
GS
[1 0 0 1 0 0] CT
-29.5 18 moveto 
1 -1 scale
(log2\(N\)) t 
GR
GR
GS
[0.62069 0 0 0.62069 0 -0.31033] CT
0.149 GC
2 setlinecap
1 LJ
0.806 LW
N
88 452 M
88 38 L
S
GR
GS
[0.62069 0 0 0.62069 0 -0.31033] CT
0.149 GC
2 setlinecap
1 LJ
0.806 LW
N
88 452 M
93.25 452 L
S
GR
GS
[0.62069 0 0 0.62069 0 -0.31033] CT
0.149 GC
2 setlinecap
1 LJ
0.806 LW
N
88 400.25 M
93.25 400.25 L
S
GR
GS
[0.62069 0 0 0.62069 0 -0.31033] CT
0.149 GC
2 setlinecap
1 LJ
0.806 LW
N
88 348.5 M
93.25 348.5 L
S
GR
GS
[0.62069 0 0 0.62069 0 -0.31033] CT
0.149 GC
2 setlinecap
1 LJ
0.806 LW
N
88 296.75 M
93.25 296.75 L
S
GR
GS
[0.62069 0 0 0.62069 0 -0.31033] CT
0.149 GC
2 setlinecap
1 LJ
0.806 LW
N
88 245 M
93.25 245 L
S
GR
GS
[0.62069 0 0 0.62069 0 -0.31033] CT
0.149 GC
2 setlinecap
1 LJ
0.806 LW
N
88 193.25 M
93.25 193.25 L
S
GR
GS
[0.62069 0 0 0.62069 0 -0.31033] CT
0.149 GC
2 setlinecap
1 LJ
0.806 LW
N
88 141.5 M
93.25 141.5 L
S
GR
GS
[0.62069 0 0 0.62069 0 -0.31033] CT
0.149 GC
2 setlinecap
1 LJ
0.806 LW
N
88 89.75 M
93.25 89.75 L
S
GR
GS
[0.62069 0 0 0.62069 0 -0.31033] CT
0.149 GC
2 setlinecap
1 LJ
0.806 LW
N
88 38 M
93.25 38 L
S
GR
GS
[0.62069 0 0 0.62069 50.62069 280.24138] CT
0.149 GC
/Helvetica 16.111 F
GS
[1 0 0 1 0 0] CT
-23 6.5 moveto 
1 -1 scale
(0.3) t 
GR
GR
GS
[0.62069 0 0 0.62069 50.62069 248.12069] CT
0.149 GC
/Helvetica 16.111 F
GS
[1 0 0 1 0 0] CT
-23 6.5 moveto 
1 -1 scale
(0.4) t 
GR
GR
GS
[0.62069 0 0 0.62069 50.62069 216] CT
0.149 GC
/Helvetica 16.111 F
GS
[1 0 0 1 0 0] CT
-23 6.5 moveto 
1 -1 scale
(0.5) t 
GR
GR
GS
[0.62069 0 0 0.62069 50.62069 183.87932] CT
0.149 GC
/Helvetica 16.111 F
GS
[1 0 0 1 0 0] CT
-23 6.5 moveto 
1 -1 scale
(0.6) t 
GR
GR
GS
[0.62069 0 0 0.62069 50.62069 151.75863] CT
0.149 GC
/Helvetica 16.111 F
GS
[1 0 0 1 0 0] CT
-23 6.5 moveto 
1 -1 scale
(0.7) t 
GR
GR
GS
[0.62069 0 0 0.62069 50.62069 119.63794] CT
0.149 GC
/Helvetica 16.111 F
GS
[1 0 0 1 0 0] CT
-23 6.5 moveto 
1 -1 scale
(0.8) t 
GR
GR
GS
[0.62069 0 0 0.62069 50.62069 87.51726] CT
0.149 GC
/Helvetica 16.111 F
GS
[1 0 0 1 0 0] CT
-23 6.5 moveto 
1 -1 scale
(0.9) t 
GR
GR
GS
[0.62069 0 0 0.62069 50.62069 55.39656] CT
0.149 GC
/Helvetica 16.111 F
GS
[1 0 0 1 0 0] CT
-9 6.5 moveto 
1 -1 scale
(1) t 
GR
GR
GS
[0.62069 0 0 0.62069 50.62069 23.27587] CT
0.149 GC
/Helvetica 16.111 F
GS
[1 0 0 1 0 0] CT
-23 6.5 moveto 
1 -1 scale
(1.1) t 
GR
GR
GS
[0 -0.62069 0.62069 0 33.34483 151.75849] CT
0.149 GC
/Helvetica 17.722 F
GS
[1 0 0 1 0 0] CT
-121.5 -4 moveto 
1 -1 scale
(avg FLOPs ratio for e = 0.0001) t 
GR
GR
GS
[0.62069 0 0 0.62069 0 -0.31033] CT
0 0.447 0.741 RC
1 LJ
0.806 LW
N
88 89.75 M
140.5 89.75 L
193 89.75 L
245.5 89.75 L
298 89.75 L
350.5 89.75 L
403 89.75 L
455.5 89.75 L
508 89.75 L
560.5 89.75 L
613 89.75 L
S
GR
GS
[0.62069 0 0 0.62069 0 -0.31033] CT
0.851 0.325 0.098 RC
1 LJ
0.806 LW
N
88 287.312 M
140.5 378.602 L
193 410.441 L
245.5 400.245 L
298 369.509 L
350.5 332.982 L
403 272.402 L
455.5 243.818 L
508 189.868 L
560.5 117.241 L
613 89.575 L
S
GR
GS
[0.62069 0 0 0.62069 0 -0.31033] CT
1 GC
N
600 439 M
600 396 L
301 396 L
301 439 L
cp
f
GR
GS
[0.62069 0 0 0.62069 222.12185 252.80481] CT
/Helvetica 14.5 F
GS
[1 0 0 1 0 0] CT
0 5.5 moveto 
1 -1 scale
(% average standard nodal FLOPs) t 
GR
GR
GS
[0.62069 0 0 0.62069 0 -0.31033] CT
0 0.447 0.741 RC
1 LJ
0.806 LW
N
305.839 407.797 M
354.233 407.797 L
S
GR
GS
[0.62069 0 0 0.62069 222.12185 264.85037] CT
/Helvetica 14.5 F
GS
[1 0 0 1 0 0] CT
0 5.5 moveto 
1 -1 scale
(% average accelerated nodal FLOPs) t 
GR
GR
GS
[0.62069 0 0 0.62069 0 -0.31033] CT
0.851 0.325 0.098 RC
1 LJ
0.806 LW
N
305.839 427.203 M
354.233 427.203 L
S
GR
GS
[0.62069 0 0 0.62069 0 -0.31033] CT
0.149 GC
10.0 ML
0.806 LW
N
301 439 M
301 396 L
600 396 L
600 439 L
cp
S
GR
%%Trailer
%%Pages: 1
%%EOF
